<?xml version='1.0' encoding='UTF-8'?>
<types:mule xmlns:types="http://www.mulesoft.org/schema/mule/types">
  <types:catalog>
    <types:type name="sampleRes" format="json">
      <types:shape format="weave" example="examples/users.json"><![CDATA[%dw 2.0

type sampleRes = {|
  page: Number {"typeId": "int"}, 
  per_page: Number {"typeId": "int"}, 
  total: Number {"typeId": "int"}, 
  total_pages: Number {"typeId": "int"}, 
  data: Array<{|    id: Number {"typeId": "int"},     email: String,     first_name: String,     last_name: String,     avatar: String  |}>, 
  support: {|
    url: String, 
    text: String
  |}
|} {"example": "{\\\"page\\\":2,\\\"per_page\\\":6,\\\"total\\\":12,\\\"total_pages\\\":2,\\\"data\\\":[{\\\"id\\\":7,\\\"email\\\":\\\"michael.lawson@reqres.in\\\",\\\"first_name\\\":\\\"Michael\\\",\\\"last_name\\\":\\\"Lawson\\\",\\\"avatar\\\":\\\"https:\\/\\/reqres.in\\/img\\/faces\\/7-image.jpg\\\"},{\\\"id\\\":8,\\\"email\\\":\\\"lindsay.ferguson@reqres.in\\\",\\\"first_name\\\":\\\"Lindsay\\\",\\\"last_name\\\":\\\"Ferguson\\\",\\\"avatar\\\":\\\"https:\\/\\/reqres.in\\/img\\/faces\\/8-image.jpg\\\"},{\\\"id\\\":9,\\\"email\\\":\\\"tobias.funke@reqres.in\\\",\\\"first_name\\\":\\\"Tobias\\\",\\\"last_name\\\":\\\"Funke\\\",\\\"avatar\\\":\\\"https:\\/\\/reqres.in\\/img\\/faces\\/9-image.jpg\\\"},{\\\"id\\\":10,\\\"email\\\":\\\"byron.fields@reqres.in\\\",\\\"first_name\\\":\\\"Byron\\\",\\\"last_name\\\":\\\"Fields\\\",\\\"avatar\\\":\\\"https:\\/\\/reqres.in\\/img\\/faces\\/10-image.jpg\\\"},{\\\"id\\\":11,\\\"email\\\":\\\"george.edwards@reqres.in\\\",\\\"first_name\\\":\\\"George\\\",\\\"last_name\\\":\\\"Edwards\\\",\\\"avatar\\\":\\\"https:\\/\\/reqres.in\\/img\\/faces\\/11-image.jpg\\\"},{\\\"id\\\":12,\\\"email\\\":\\\"rachel.howell@reqres.in\\\",\\\"first_name\\\":\\\"Rachel\\\",\\\"last_name\\\":\\\"Howell\\\",\\\"avatar\\\":\\\"https:\\/\\/reqres.in\\/img\\/faces\\/12-image.jpg\\\"}],\\\"support\\\":{\\\"url\\\":\\\"https:\\/\\/reqres.in\\/#support-heading\\\",\\\"text\\\":\\\"To keep ReqRes free, contributions towards server costs are appreciated!\\\"}}"}

]]></types:shape>
    </types:type>
  </types:catalog>
  <types:enrichment select="#bccbb5cf-c0d2-40e4-bcfd-54715c7a8b80">
    <types:processor-declaration>
      <types:input-event>
        <types:message>
          <types:payload type="sampleRes"/>
        </types:message>
      </types:input-event>
    </types:processor-declaration>
  </types:enrichment>
  <types:enrichment select="#3d0ec0a0-fb21-4ed1-b923-45042d8a96a5"/>
</types:mule>